utterance,transcript,streamURL
play little stevens underground garage,playing little stevens underground garage,http://opml.radiotime.com/Tune.ashx
play z100,playing z100 on iheart radio,
play def leppard,playing def leppard on spotify,*
play where is my mind,playing where is my mind by the pixies on spotify,*